%YAML 1.1
%TAG !u! tag:unity3d.com,2011:
--- !u!29 &1
OcclusionCullingSettings:
  m_ObjectHideFlags: 0
  serializedVersion: 2
  m_OcclusionBakeSettings:
    smallestOccluder: 5
    smallestHole: 0.25
    backfaceThreshold: 100
  m_SceneGUID: 00000000000000000000000000000000
  m_OcclusionCullingData: {fileID: 0}
--- !u!104 &2
RenderSettings:
  m_ObjectHideFlags: 0
  serializedVersion: 9
  m_Fog: 0
  m_FogColor: {r: 0.5, g: 0.5, b: 0.5, a: 1}
  m_FogMode: 3
  m_FogDensity: 0.01
  m_LinearFogStart: 0
  m_LinearFogEnd: 300
  m_AmbientSkyColor: {r: 0.212, g: 0.227, b: 0.259, a: 1}
  m_AmbientEquatorColor: {r: 0.114, g: 0.125, b: 0.133, a: 1}
  m_AmbientGroundColor: {r: 0.047, g: 0.043, b: 0.035, a: 1}
  m_AmbientIntensity: 1
  m_AmbientMode: 0
  m_SubtractiveShadowColor: {r: 0.42, g: 0.478, b: 0.627, a: 1}
  m_SkyboxMaterial: {fileID: 10304, guid: 0000000000000000f000000000000000, type: 0}
  m_HaloStrength: 0.5
  m_FlareStrength: 1
  m_FlareFadeSpeed: 3
  m_HaloTexture: {fileID: 0}
  m_SpotCookie: {fileID: 10001, guid: 0000000000000000e000000000000000, type: 0}
  m_DefaultReflectionMode: 0
  m_DefaultReflectionResolution: 128
  m_ReflectionBounces: 1
  m_ReflectionIntensity: 1
  m_CustomReflection: {fileID: 0}
  m_Sun: {fileID: 0}
  m_IndirectSpecularColor: {r: 0.18028355, g: 0.22571374, b: 0.30692255, a: 1}
  m_UseRadianceAmbientProbe: 0
--- !u!157 &3
LightmapSettings:
  m_ObjectHideFlags: 0
  serializedVersion: 11
  m_GIWorkflowMode: 0
  m_GISettings:
    serializedVersion: 2
    m_BounceScale: 1
    m_IndirectOutputScale: 1
    m_AlbedoBoost: 1
    m_EnvironmentLightingMode: 0
    m_EnableBakedLightmaps: 1
    m_EnableRealtimeLightmaps: 1
  m_LightmapEditorSettings:
    serializedVersion: 10
    m_Resolution: 2
    m_BakeResolution: 40
    m_AtlasSize: 1024
    m_AO: 0
    m_AOMaxDistance: 1
    m_CompAOExponent: 1
    m_CompAOExponentDirect: 0
    m_Padding: 2
    m_LightmapParameters: {fileID: 0}
    m_LightmapsBakeMode: 1
    m_TextureCompression: 1
    m_FinalGather: 0
    m_FinalGatherFiltering: 1
    m_FinalGatherRayCount: 256
    m_ReflectionCompression: 2
    m_MixedBakeMode: 2
    m_BakeBackend: 0
    m_PVRSampling: 1
    m_PVRDirectSampleCount: 32
    m_PVRSampleCount: 500
    m_PVRBounces: 2
    m_PVRFilterTypeDirect: 0
    m_PVRFilterTypeIndirect: 0
    m_PVRFilterTypeAO: 0
    m_PVRFilteringMode: 1
    m_PVRCulling: 1
    m_PVRFilteringGaussRadiusDirect: 1
    m_PVRFilteringGaussRadiusIndirect: 5
    m_PVRFilteringGaussRadiusAO: 2
    m_PVRFilteringAtrousPositionSigmaDirect: 0.5
    m_PVRFilteringAtrousPositionSigmaIndirect: 2
    m_PVRFilteringAtrousPositionSigmaAO: 1
    m_ShowResolutionOverlay: 1
  m_LightingDataAsset: {fileID: 0}
  m_UseShadowmask: 1
--- !u!196 &4
NavMeshSettings:
  serializedVersion: 2
  m_ObjectHideFlags: 0
  m_BuildSettings:
    serializedVersion: 2
    agentTypeID: 0
    agentRadius: 0.5
    agentHeight: 2
    agentSlope: 45
    agentClimb: 0.4
    ledgeDropHeight: 0
    maxJumpAcrossDistance: 0
    minRegionArea: 2
    manualCellSize: 0
    cellSize: 0.16666667
    manualTileSize: 0
    tileSize: 256
    accuratePlacement: 0
    debug:
      m_Flags: 0
  m_NavMeshData: {fileID: 0}
--- !u!1 &586201803
GameObject:
  m_ObjectHideFlags: 0
  m_CorrespondingSourceObject: {fileID: 0}
  m_PrefabInstance: {fileID: 0}
  m_PrefabAsset: {fileID: 0}
  serializedVersion: 6
  m_Component:
  - component: {fileID: 586201805}
  - component: {fileID: 586201804}
  m_Layer: 0
  m_Name: BiocodesLeftPrefab
  m_TagString: Untagged
  m_Icon: {fileID: 0}
  m_NavMeshLayer: 0
  m_StaticEditorFlags: 0
  m_IsActive: 1
--- !u!114 &586201804
MonoBehaviour:
  m_ObjectHideFlags: 0
  m_CorrespondingSourceObject: {fileID: 0}
  m_PrefabInstance: {fileID: 0}
  m_PrefabAsset: {fileID: 0}
  m_GameObject: {fileID: 586201803}
  m_Enabled: 1
  m_EditorHideFlags: 0
  m_Script: {fileID: 11500000, guid: 86d61f28f16707d43acb21cc45c8f752, type: 3}
  m_Name: 
  m_EditorClassIdentifier: 
  BiocodesLeft: 18
--- !u!4 &586201805
Transform:
  m_ObjectHideFlags: 0
  m_CorrespondingSourceObject: {fileID: 0}
  m_PrefabInstance: {fileID: 0}
  m_PrefabAsset: {fileID: 0}
  m_GameObject: {fileID: 586201803}
  m_LocalRotation: {x: 0, y: 0, z: 0, w: 1}
  m_LocalPosition: {x: 3.7763994, y: 2.7880402, z: -3.0659306}
  m_LocalScale: {x: 1, y: 1, z: 1}
  m_Children: []
  m_Father: {fileID: 0}
  m_RootOrder: 5
  m_LocalEulerAnglesHint: {x: 0, y: 0, z: 0}
--- !u!1001 &616025537
PrefabInstance:
  m_ObjectHideFlags: 0
  serializedVersion: 2
  m_Modification:
    m_TransformParent: {fileID: 0}
    m_Modifications:
    - target: {fileID: 1818208016283020, guid: 51af31754d9ba024b9348929a0b7c7ff, type: 3}
      propertyPath: m_Name
      value: BiocodeLauncherPrefab
      objectReference: {fileID: 0}
    - target: {fileID: 1818208016283020, guid: 51af31754d9ba024b9348929a0b7c7ff, type: 3}
      propertyPath: m_IsActive
      value: 0
      objectReference: {fileID: 0}
    - target: {fileID: 4607297213071208, guid: 51af31754d9ba024b9348929a0b7c7ff, type: 3}
      propertyPath: m_LocalPosition.x
      value: 0
      objectReference: {fileID: 0}
    - target: {fileID: 4607297213071208, guid: 51af31754d9ba024b9348929a0b7c7ff, type: 3}
      propertyPath: m_LocalPosition.y
      value: 3
      objectReference: {fileID: 0}
    - target: {fileID: 4607297213071208, guid: 51af31754d9ba024b9348929a0b7c7ff, type: 3}
      propertyPath: m_LocalPosition.z
      value: 0
      objectReference: {fileID: 0}
    - target: {fileID: 4607297213071208, guid: 51af31754d9ba024b9348929a0b7c7ff, type: 3}
      propertyPath: m_LocalRotation.x
      value: -0
      objectReference: {fileID: 0}
    - target: {fileID: 4607297213071208, guid: 51af31754d9ba024b9348929a0b7c7ff, type: 3}
      propertyPath: m_LocalRotation.y
      value: -0
      objectReference: {fileID: 0}
    - target: {fileID: 4607297213071208, guid: 51af31754d9ba024b9348929a0b7c7ff, type: 3}
      propertyPath: m_LocalRotation.z
      value: -0
      objectReference: {fileID: 0}
    - target: {fileID: 4607297213071208, guid: 51af31754d9ba024b9348929a0b7c7ff, type: 3}
      propertyPath: m_LocalRotation.w
      value: 1
      objectReference: {fileID: 0}
    - target: {fileID: 4607297213071208, guid: 51af31754d9ba024b9348929a0b7c7ff, type: 3}
      propertyPath: m_RootOrder
      value: 4
      objectReference: {fileID: 0}
    - target: {fileID: 4607297213071208, guid: 51af31754d9ba024b9348929a0b7c7ff, type: 3}
      propertyPath: m_LocalEulerAnglesHint.x
      value: 0
      objectReference: {fileID: 0}
    - target: {fileID: 4607297213071208, guid: 51af31754d9ba024b9348929a0b7c7ff, type: 3}
      propertyPath: m_LocalEulerAnglesHint.y
      value: 0
      objectReference: {fileID: 0}
    - target: {fileID: 4607297213071208, guid: 51af31754d9ba024b9348929a0b7c7ff, type: 3}
      propertyPath: m_LocalEulerAnglesHint.z
      value: 0
      objectReference: {fileID: 0}
    - target: {fileID: 114418165804255014, guid: 51af31754d9ba024b9348929a0b7c7ff,
        type: 3}
      propertyPath: LoseMenuUI
      value: 
      objectReference: {fileID: 0}
    - target: {fileID: 114418165804255014, guid: 51af31754d9ba024b9348929a0b7c7ff,
        type: 3}
      propertyPath: NextBiocode
      value: 
      objectReference: {fileID: 1924155417461940, guid: 4f8a66bf9ab7be74487b230369369e00,
        type: 3}
    - target: {fileID: 114418165804255014, guid: 51af31754d9ba024b9348929a0b7c7ff,
        type: 3}
      propertyPath: PurpleBiocodePrefab
      value: 
      objectReference: {fileID: 5883333742279163981, guid: 133a009e067f0fd46afff9b63c566b4c,
        type: 3}
    - target: {fileID: 114418165804255014, guid: 51af31754d9ba024b9348929a0b7c7ff,
        type: 3}
      propertyPath: ShootBiocode
      value: 
      objectReference: {fileID: 57, guid: 52ae1e2f30a429a4187e47b942c801ea, type: 3}
    - target: {fileID: 813491260, guid: 51af31754d9ba024b9348929a0b7c7ff, type: 3}
      propertyPath: m_Controller
      value: 
      objectReference: {fileID: 9100000, guid: 2df1114da906d464497b86efcbed6c2a, type: 2}
    - target: {fileID: 616025539, guid: 51af31754d9ba024b9348929a0b7c7ff, type: 3}
      propertyPath: m_Controller
      value: 
      objectReference: {fileID: 9100000, guid: d452e1162c84dc340a763d9ba770b469, type: 2}
    m_RemovedComponents: []
  m_SourcePrefab: {fileID: 100100000, guid: 51af31754d9ba024b9348929a0b7c7ff, type: 3}
--- !u!1 &813491259 stripped
GameObject:
  m_CorrespondingSourceObject: {fileID: 1818208016283020, guid: 51af31754d9ba024b9348929a0b7c7ff,
    type: 3}
  m_PrefabInstance: {fileID: 616025537}
  m_PrefabAsset: {fileID: 0}
--- !u!1001 &1333091366
PrefabInstance:
  m_ObjectHideFlags: 0
  serializedVersion: 2
  m_Modification:
    m_TransformParent: {fileID: 0}
    m_Modifications:
    - target: {fileID: 1858930919, guid: 68b46d81a0f2d7649b3b954234bdf024, type: 3}
      propertyPath: m_Name
      value: Canvas
      objectReference: {fileID: 0}
    - target: {fileID: 1858930924, guid: 68b46d81a0f2d7649b3b954234bdf024, type: 3}
      propertyPath: m_LocalPosition.x
      value: 0
      objectReference: {fileID: 0}
    - target: {fileID: 1858930924, guid: 68b46d81a0f2d7649b3b954234bdf024, type: 3}
      propertyPath: m_LocalPosition.y
      value: 0
      objectReference: {fileID: 0}
    - target: {fileID: 1858930924, guid: 68b46d81a0f2d7649b3b954234bdf024, type: 3}
      propertyPath: m_LocalPosition.z
      value: 0
      objectReference: {fileID: 0}
    - target: {fileID: 1858930924, guid: 68b46d81a0f2d7649b3b954234bdf024, type: 3}
      propertyPath: m_LocalRotation.x
      value: 0
      objectReference: {fileID: 0}
    - target: {fileID: 1858930924, guid: 68b46d81a0f2d7649b3b954234bdf024, type: 3}
      propertyPath: m_LocalRotation.y
      value: 0
      objectReference: {fileID: 0}
    - target: {fileID: 1858930924, guid: 68b46d81a0f2d7649b3b954234bdf024, type: 3}
      propertyPath: m_LocalRotation.z
      value: 0
      objectReference: {fileID: 0}
    - target: {fileID: 1858930924, guid: 68b46d81a0f2d7649b3b954234bdf024, type: 3}
      propertyPath: m_LocalRotation.w
      value: 1
      objectReference: {fileID: 0}
    - target: {fileID: 1858930924, guid: 68b46d81a0f2d7649b3b954234bdf024, type: 3}
      propertyPath: m_RootOrder
      value: 2
      objectReference: {fileID: 0}
    - target: {fileID: 1858930924, guid: 68b46d81a0f2d7649b3b954234bdf024, type: 3}
      propertyPath: m_LocalEulerAnglesHint.x
      value: 0
      objectReference: {fileID: 0}
    - target: {fileID: 1858930924, guid: 68b46d81a0f2d7649b3b954234bdf024, type: 3}
      propertyPath: m_LocalEulerAnglesHint.y
      value: 0
      objectReference: {fileID: 0}
    - target: {fileID: 1858930924, guid: 68b46d81a0f2d7649b3b954234bdf024, type: 3}
      propertyPath: m_LocalEulerAnglesHint.z
      value: 0
      objectReference: {fileID: 0}
    - target: {fileID: 1858930924, guid: 68b46d81a0f2d7649b3b954234bdf024, type: 3}
      propertyPath: m_AnchoredPosition.x
      value: 0
      objectReference: {fileID: 0}
    - target: {fileID: 1858930924, guid: 68b46d81a0f2d7649b3b954234bdf024, type: 3}
      propertyPath: m_AnchoredPosition.y
      value: 0
      objectReference: {fileID: 0}
    - target: {fileID: 1858930924, guid: 68b46d81a0f2d7649b3b954234bdf024, type: 3}
      propertyPath: m_SizeDelta.x
      value: 0
      objectReference: {fileID: 0}
    - target: {fileID: 1858930924, guid: 68b46d81a0f2d7649b3b954234bdf024, type: 3}
      propertyPath: m_SizeDelta.y
      value: 0
      objectReference: {fileID: 0}
    - target: {fileID: 1858930924, guid: 68b46d81a0f2d7649b3b954234bdf024, type: 3}
      propertyPath: m_AnchorMin.x
      value: 0
      objectReference: {fileID: 0}
    - target: {fileID: 1858930924, guid: 68b46d81a0f2d7649b3b954234bdf024, type: 3}
      propertyPath: m_AnchorMin.y
      value: 0
      objectReference: {fileID: 0}
    - target: {fileID: 1858930924, guid: 68b46d81a0f2d7649b3b954234bdf024, type: 3}
      propertyPath: m_AnchorMax.x
      value: 0
      objectReference: {fileID: 0}
    - target: {fileID: 1858930924, guid: 68b46d81a0f2d7649b3b954234bdf024, type: 3}
      propertyPath: m_AnchorMax.y
      value: 0
      objectReference: {fileID: 0}
    - target: {fileID: 1858930924, guid: 68b46d81a0f2d7649b3b954234bdf024, type: 3}
      propertyPath: m_Pivot.x
      value: 0
      objectReference: {fileID: 0}
    - target: {fileID: 1858930924, guid: 68b46d81a0f2d7649b3b954234bdf024, type: 3}
      propertyPath: m_Pivot.y
      value: 0
      objectReference: {fileID: 0}
    - target: {fileID: 1858930923, guid: 68b46d81a0f2d7649b3b954234bdf024, type: 3}
      propertyPath: m_RenderMode
      value: 1
      objectReference: {fileID: 0}
    - target: {fileID: 1858930923, guid: 68b46d81a0f2d7649b3b954234bdf024, type: 3}
      propertyPath: m_Camera
      value: 
      objectReference: {fileID: 1511219973}
    - target: {fileID: 1858930923, guid: 68b46d81a0f2d7649b3b954234bdf024, type: 3}
      propertyPath: m_PlaneDistance
      value: 10
      objectReference: {fileID: 0}
    - target: {fileID: 1694279571, guid: 68b46d81a0f2d7649b3b954234bdf024, type: 3}
      propertyPath: m_havePropertiesChanged
      value: 1
      objectReference: {fileID: 0}
    - target: {fileID: 1694279571, guid: 68b46d81a0f2d7649b3b954234bdf024, type: 3}
      propertyPath: m_isInputParsingRequired
      value: 1
      objectReference: {fileID: 0}
    m_RemovedComponents: []
  m_SourcePrefab: {fileID: 100100000, guid: 68b46d81a0f2d7649b3b954234bdf024, type: 3}
--- !u!1 &1336113069
GameObject:
  m_ObjectHideFlags: 0
  m_CorrespondingSourceObject: {fileID: 0}
  m_PrefabInstance: {fileID: 0}
  m_PrefabAsset: {fileID: 0}
  serializedVersion: 6
  m_Component:
  - component: {fileID: 1336113071}
  - component: {fileID: 1336113070}
  m_Layer: 0
  m_Name: Directional Light
  m_TagString: Untagged
  m_Icon: {fileID: 0}
  m_NavMeshLayer: 0
  m_StaticEditorFlags: 0
  m_IsActive: 1
--- !u!108 &1336113070
Light:
  m_ObjectHideFlags: 0
  m_CorrespondingSourceObject: {fileID: 0}
  m_PrefabInstance: {fileID: 0}
  m_PrefabAsset: {fileID: 0}
  m_GameObject: {fileID: 1336113069}
  m_Enabled: 1
  serializedVersion: 8
  m_Type: 1
  m_Color: {r: 1, g: 0.95686275, b: 0.8392157, a: 1}
  m_Intensity: 1
  m_Range: 10
  m_SpotAngle: 30
  m_CookieSize: 10
  m_Shadows:
    m_Type: 0
    m_Resolution: -1
    m_CustomResolution: -1
    m_Strength: 1
    m_Bias: 0.05
    m_NormalBias: 0.4
    m_NearPlane: 0.2
  m_Cookie: {fileID: 0}
  m_DrawHalo: 0
  m_Flare: {fileID: 0}
  m_RenderMode: 0
  m_CullingMask:
    serializedVersion: 2
    m_Bits: 4294967295
  m_Lightmapping: 4
  m_LightShadowCasterMode: 0
  m_AreaSize: {x: 1, y: 1}
  m_BounceIntensity: 1
  m_ColorTemperature: 6570
  m_UseColorTemperature: 0
  m_ShadowRadius: 0
  m_ShadowAngle: 0
--- !u!4 &1336113071
Transform:
  m_ObjectHideFlags: 0
  m_CorrespondingSourceObject: {fileID: 0}
  m_PrefabInstance: {fileID: 0}
  m_PrefabAsset: {fileID: 0}
  m_GameObject: {fileID: 1336113069}
  m_LocalRotation: {x: 0.40821788, y: -0.23456968, z: 0.10938163, w: 0.8754261}
  m_LocalPosition: {x: -29, y: 330, z: -313}
  m_LocalScale: {x: 1, y: 1, z: 1}
  m_Children: []
  m_Father: {fileID: 0}
  m_RootOrder: 0
  m_LocalEulerAnglesHint: {x: 50, y: -30, z: 0}
--- !u!1 &1511219970
GameObject:
  m_ObjectHideFlags: 0
  m_CorrespondingSourceObject: {fileID: 0}
  m_PrefabInstance: {fileID: 0}
  m_PrefabAsset: {fileID: 0}
  serializedVersion: 6
  m_Component:
  - component: {fileID: 1511219974}
  - component: {fileID: 1511219973}
  - component: {fileID: 1511219972}
  - component: {fileID: 1511219971}
  m_Layer: 0
  m_Name: Main Camera
  m_TagString: MainCamera
  m_Icon: {fileID: 0}
  m_NavMeshLayer: 0
  m_StaticEditorFlags: 0
  m_IsActive: 1
--- !u!81 &1511219971
AudioListener:
  m_ObjectHideFlags: 0
  m_CorrespondingSourceObject: {fileID: 0}
  m_PrefabInstance: {fileID: 0}
  m_PrefabAsset: {fileID: 0}
  m_GameObject: {fileID: 1511219970}
  m_Enabled: 1
--- !u!124 &1511219972
Behaviour:
  m_ObjectHideFlags: 0
  m_CorrespondingSourceObject: {fileID: 0}
  m_PrefabInstance: {fileID: 0}
  m_PrefabAsset: {fileID: 0}
  m_GameObject: {fileID: 1511219970}
  m_Enabled: 1
--- !u!20 &1511219973
Camera:
  m_ObjectHideFlags: 0
  m_CorrespondingSourceObject: {fileID: 0}
  m_PrefabInstance: {fileID: 0}
  m_PrefabAsset: {fileID: 0}
  m_GameObject: {fileID: 1511219970}
  m_Enabled: 1
  serializedVersion: 2
  m_ClearFlags: 2
  m_BackGroundColor: {r: 0.43121618, g: 0.4339623, b: 0, a: 0}
  m_projectionMatrixMode: 1
  m_SensorSize: {x: 36, y: 24}
  m_LensShift: {x: 0, y: 0}
  m_GateFitMode: 2
  m_FocalLength: 50
  m_NormalizedViewPortRect:
    serializedVersion: 2
    x: 0
    y: 0
    width: 1
    height: 1
  near clip plane: 0.3
  far clip plane: 1000
  field of view: 70
  orthographic: 0
  orthographic size: 5
  m_Depth: -1
  m_CullingMask:
    serializedVersion: 2
    m_Bits: 4294967295
  m_RenderingPath: -1
  m_TargetTexture: {fileID: 0}
  m_TargetDisplay: 0
  m_TargetEye: 3
  m_HDR: 1
  m_AllowMSAA: 1
  m_AllowDynamicResolution: 0
  m_ForceIntoRT: 0
  m_OcclusionCulling: 1
  m_StereoConvergence: 10
  m_StereoSeparation: 0.022
--- !u!4 &1511219974
Transform:
  m_ObjectHideFlags: 0
  m_CorrespondingSourceObject: {fileID: 0}
  m_PrefabInstance: {fileID: 0}
  m_PrefabAsset: {fileID: 0}
  m_GameObject: {fileID: 1511219970}
  m_LocalRotation: {x: 0.6532815, y: 0.27059805, z: -0.27059805, w: 0.6532815}
  m_LocalPosition: {x: 0, y: 29.22, z: -0.07}
  m_LocalScale: {x: 1, y: 2.2054715, z: 3.6757846}
  m_Children: []
  m_Father: {fileID: 0}
  m_RootOrder: 1
  m_LocalEulerAnglesHint: {x: 90, y: 45, z: 0}
--- !u!1001 &1620169261
PrefabInstance:
  m_ObjectHideFlags: 0
  serializedVersion: 2
  m_Modification:
    m_TransformParent: {fileID: 0}
    m_Modifications:
    - target: {fileID: 1175093415492246, guid: 8865b8bbe12e3034f97980da67215260, type: 3}
      propertyPath: m_IsActive
      value: 1
      objectReference: {fileID: 0}
    - target: {fileID: 4625449017375500, guid: 8865b8bbe12e3034f97980da67215260, type: 3}
      propertyPath: m_LocalPosition.x
      value: 0.8533623
      objectReference: {fileID: 0}
    - target: {fileID: 4625449017375500, guid: 8865b8bbe12e3034f97980da67215260, type: 3}
      propertyPath: m_LocalPosition.y
      value: 61.7
      objectReference: {fileID: 0}
    - target: {fileID: 4625449017375500, guid: 8865b8bbe12e3034f97980da67215260, type: 3}
      propertyPath: m_LocalPosition.z
      value: 0.6329095
      objectReference: {fileID: 0}
    - target: {fileID: 4625449017375500, guid: 8865b8bbe12e3034f97980da67215260, type: 3}
      propertyPath: m_LocalRotation.x
      value: 0
      objectReference: {fileID: 0}
    - target: {fileID: 4625449017375500, guid: 8865b8bbe12e3034f97980da67215260, type: 3}
      propertyPath: m_LocalRotation.y
      value: 0
      objectReference: {fileID: 0}
    - target: {fileID: 4625449017375500, guid: 8865b8bbe12e3034f97980da67215260, type: 3}
      propertyPath: m_LocalRotation.z
      value: 0
      objectReference: {fileID: 0}
    - target: {fileID: 4625449017375500, guid: 8865b8bbe12e3034f97980da67215260, type: 3}
      propertyPath: m_LocalRotation.w
      value: 1
      objectReference: {fileID: 0}
    - target: {fileID: 4625449017375500, guid: 8865b8bbe12e3034f97980da67215260, type: 3}
      propertyPath: m_RootOrder
      value: 7
      objectReference: {fileID: 0}
    - target: {fileID: 114264646746778688, guid: 8865b8bbe12e3034f97980da67215260,
        type: 3}
      propertyPath: TimeWait
      value: 1000
      objectReference: {fileID: 0}
    - target: {fileID: 114264646746778688, guid: 8865b8bbe12e3034f97980da67215260,
        type: 3}
      propertyPath: SpawnEffect
      value: 
      objectReference: {fileID: 1311366462316954, guid: 506a06125115f2f49b5ee51567bae10c,
        type: 3}
    - target: {fileID: 114264646746778688, guid: 8865b8bbe12e3034f97980da67215260,
        type: 3}
      propertyPath: BiocodeLauncher
      value: 
      objectReference: {fileID: 813491259}
    - target: {fileID: 114264646746778688, guid: 8865b8bbe12e3034f97980da67215260,
        type: 3}
      propertyPath: AntibodyPrefab
      value: 
      objectReference: {fileID: 1178877619240120, guid: c3759f47b11630849b72511028bd71f0,
        type: 3}
    - target: {fileID: 114264646746778688, guid: 8865b8bbe12e3034f97980da67215260,
        type: 3}
      propertyPath: CoinPrefab
      value: 
      objectReference: {fileID: 1551319445902382, guid: a437e4179cb5f21449947f83b836c391,
        type: 3}
    m_RemovedComponents: []
  m_SourcePrefab: {fileID: 100100000, guid: 8865b8bbe12e3034f97980da67215260, type: 3}
--- !u!1 &2040179319
GameObject:
  m_ObjectHideFlags: 0
  m_CorrespondingSourceObject: {fileID: 0}
  m_PrefabInstance: {fileID: 0}
  m_PrefabAsset: {fileID: 0}
  serializedVersion: 6
  m_Component:
  - component: {fileID: 2040179322}
  - component: {fileID: 2040179321}
  - component: {fileID: 2040179320}
  m_Layer: 0
  m_Name: EventSystem
  m_TagString: Untagged
  m_Icon: {fileID: 0}
  m_NavMeshLayer: 0
  m_StaticEditorFlags: 0
  m_IsActive: 1
--- !u!114 &2040179320
MonoBehaviour:
  m_ObjectHideFlags: 0
  m_CorrespondingSourceObject: {fileID: 0}
  m_PrefabInstance: {fileID: 0}
  m_PrefabAsset: {fileID: 0}
  m_GameObject: {fileID: 2040179319}
  m_Enabled: 1
  m_EditorHideFlags: 0
  m_Script: {fileID: 1077351063, guid: f70555f144d8491a825f0804e09c671c, type: 3}
  m_Name: 
  m_EditorClassIdentifier: 
  m_HorizontalAxis: Horizontal
  m_VerticalAxis: Vertical
  m_SubmitButton: Submit
  m_CancelButton: Cancel
  m_InputActionsPerSecond: 10
  m_RepeatDelay: 0.5
  m_ForceModuleActive: 0
--- !u!114 &2040179321
MonoBehaviour:
  m_ObjectHideFlags: 0
  m_CorrespondingSourceObject: {fileID: 0}
  m_PrefabInstance: {fileID: 0}
  m_PrefabAsset: {fileID: 0}
  m_GameObject: {fileID: 2040179319}
  m_Enabled: 1
  m_EditorHideFlags: 0
  m_Script: {fileID: -619905303, guid: f70555f144d8491a825f0804e09c671c, type: 3}
  m_Name: 
  m_EditorClassIdentifier: 
  m_FirstSelected: {fileID: 0}
  m_sendNavigationEvents: 1
  m_DragThreshold: 5
--- !u!4 &2040179322
Transform:
  m_ObjectHideFlags: 0
  m_CorrespondingSourceObject: {fileID: 0}
  m_PrefabInstance: {fileID: 0}
  m_PrefabAsset: {fileID: 0}
  m_GameObject: {fileID: 2040179319}
  m_LocalRotation: {x: 0, y: 0, z: 0, w: 1}
  m_LocalPosition: {x: 0, y: 0, z: 0}
  m_LocalScale: {x: 1, y: 1, z: 1}
  m_Children: []
  m_Father: {fileID: 0}
  m_RootOrder: 6
  m_LocalEulerAnglesHint: {x: 0, y: 0, z: 0}
--- !u!1001 &858567314608708039
PrefabInstance:
  m_ObjectHideFlags: 0
  serializedVersion: 2
  m_Modification:
    m_TransformParent: {fileID: 0}
    m_Modifications:
    - target: {fileID: 4342924303194347244, guid: 1e1d0c5fc9ef0a64aa9da33c8e6ddd8a,
        type: 3}
      propertyPath: m_Name
      value: TumblerBiocodesPrefab41
      objectReference: {fileID: 0}
    - target: {fileID: 6107097327397896364, guid: 1e1d0c5fc9ef0a64aa9da33c8e6ddd8a,
        type: 3}
      propertyPath: m_LocalPosition.x
      value: -0
      objectReference: {fileID: 0}
    - target: {fileID: 6107097327397896364, guid: 1e1d0c5fc9ef0a64aa9da33c8e6ddd8a,
        type: 3}
      propertyPath: m_LocalPosition.y
      value: 3.53
      objectReference: {fileID: 0}
    - target: {fileID: 6107097327397896364, guid: 1e1d0c5fc9ef0a64aa9da33c8e6ddd8a,
        type: 3}
      propertyPath: m_LocalPosition.z
      value: 18
      objectReference: {fileID: 0}
    - target: {fileID: 6107097327397896364, guid: 1e1d0c5fc9ef0a64aa9da33c8e6ddd8a,
        type: 3}
      propertyPath: m_LocalRotation.x
      value: 0
      objectReference: {fileID: 0}
    - target: {fileID: 6107097327397896364, guid: 1e1d0c5fc9ef0a64aa9da33c8e6ddd8a,
        type: 3}
      propertyPath: m_LocalRotation.y
      value: 0.5
      objectReference: {fileID: 0}
    - target: {fileID: 6107097327397896364, guid: 1e1d0c5fc9ef0a64aa9da33c8e6ddd8a,
        type: 3}
      propertyPath: m_LocalRotation.z
      value: 0
      objectReference: {fileID: 0}
    - target: {fileID: 6107097327397896364, guid: 1e1d0c5fc9ef0a64aa9da33c8e6ddd8a,
        type: 3}
      propertyPath: m_LocalRotation.w
      value: 0.8660254
      objectReference: {fileID: 0}
    - target: {fileID: 6107097327397896364, guid: 1e1d0c5fc9ef0a64aa9da33c8e6ddd8a,
        type: 3}
      propertyPath: m_RootOrder
      value: 9
      objectReference: {fileID: 0}
    - target: {fileID: 6107097327397896364, guid: 1e1d0c5fc9ef0a64aa9da33c8e6ddd8a,
        type: 3}
      propertyPath: m_LocalEulerAnglesHint.x
      value: 0
      objectReference: {fileID: 0}
    - target: {fileID: 6107097327397896364, guid: 1e1d0c5fc9ef0a64aa9da33c8e6ddd8a,
        type: 3}
      propertyPath: m_LocalEulerAnglesHint.y
      value: 60
      objectReference: {fileID: 0}
    - target: {fileID: 6107097327397896364, guid: 1e1d0c5fc9ef0a64aa9da33c8e6ddd8a,
        type: 3}
      propertyPath: m_LocalEulerAnglesHint.z
      value: 0
      objectReference: {fileID: 0}
    m_RemovedComponents: []
  m_SourcePrefab: {fileID: 100100000, guid: 1e1d0c5fc9ef0a64aa9da33c8e6ddd8a, type: 3}
--- !u!1001 &1342197319517903871
PrefabInstance:
  m_ObjectHideFlags: 0
  serializedVersion: 2
  m_Modification:
    m_TransformParent: {fileID: 0}
    m_Modifications:
    - target: {fileID: 1342197319249584155, guid: 196426bdc3ddb544db706e5f93962f84,
        type: 3}
      propertyPath: m_Name
      value: HealthStatus
      objectReference: {fileID: 0}
    - target: {fileID: 1342197319249584155, guid: 196426bdc3ddb544db706e5f93962f84,
        type: 3}
      propertyPath: m_Layer
      value: 5
      objectReference: {fileID: 0}
    - target: {fileID: 1342197319249584151, guid: 196426bdc3ddb544db706e5f93962f84,
        type: 3}
      propertyPath: m_LocalPosition.x
      value: 0
      objectReference: {fileID: 0}
    - target: {fileID: 1342197319249584151, guid: 196426bdc3ddb544db706e5f93962f84,
        type: 3}
      propertyPath: m_LocalPosition.y
      value: 0
      objectReference: {fileID: 0}
    - target: {fileID: 1342197319249584151, guid: 196426bdc3ddb544db706e5f93962f84,
        type: 3}
      propertyPath: m_LocalPosition.z
      value: 0
      objectReference: {fileID: 0}
    - target: {fileID: 1342197319249584151, guid: 196426bdc3ddb544db706e5f93962f84,
        type: 3}
      propertyPath: m_LocalRotation.x
      value: 0
      objectReference: {fileID: 0}
    - target: {fileID: 1342197319249584151, guid: 196426bdc3ddb544db706e5f93962f84,
        type: 3}
      propertyPath: m_LocalRotation.y
      value: 0
      objectReference: {fileID: 0}
    - target: {fileID: 1342197319249584151, guid: 196426bdc3ddb544db706e5f93962f84,
        type: 3}
      propertyPath: m_LocalRotation.z
      value: 0
      objectReference: {fileID: 0}
    - target: {fileID: 1342197319249584151, guid: 196426bdc3ddb544db706e5f93962f84,
        type: 3}
      propertyPath: m_LocalRotation.w
      value: 1
      objectReference: {fileID: 0}
    - target: {fileID: 1342197319249584151, guid: 196426bdc3ddb544db706e5f93962f84,
        type: 3}
      propertyPath: m_RootOrder
      value: 3
      objectReference: {fileID: 0}
    - target: {fileID: 1342197319249584151, guid: 196426bdc3ddb544db706e5f93962f84,
        type: 3}
      propertyPath: m_LocalEulerAnglesHint.x
      value: 0
      objectReference: {fileID: 0}
    - target: {fileID: 1342197319249584151, guid: 196426bdc3ddb544db706e5f93962f84,
        type: 3}
      propertyPath: m_LocalEulerAnglesHint.y
      value: 0
      objectReference: {fileID: 0}
    - target: {fileID: 1342197319249584151, guid: 196426bdc3ddb544db706e5f93962f84,
        type: 3}
      propertyPath: m_LocalEulerAnglesHint.z
      value: 0
      objectReference: {fileID: 0}
    - target: {fileID: 1342197319249584151, guid: 196426bdc3ddb544db706e5f93962f84,
        type: 3}
      propertyPath: m_AnchoredPosition.x
      value: 0
      objectReference: {fileID: 0}
    - target: {fileID: 1342197319249584151, guid: 196426bdc3ddb544db706e5f93962f84,
        type: 3}
      propertyPath: m_AnchoredPosition.y
      value: 0
      objectReference: {fileID: 0}
    - target: {fileID: 1342197319249584151, guid: 196426bdc3ddb544db706e5f93962f84,
        type: 3}
      propertyPath: m_SizeDelta.x
      value: 0
      objectReference: {fileID: 0}
    - target: {fileID: 1342197319249584151, guid: 196426bdc3ddb544db706e5f93962f84,
        type: 3}
      propertyPath: m_SizeDelta.y
      value: 0
      objectReference: {fileID: 0}
    - target: {fileID: 1342197319249584151, guid: 196426bdc3ddb544db706e5f93962f84,
        type: 3}
      propertyPath: m_AnchorMin.x
      value: 0
      objectReference: {fileID: 0}
    - target: {fileID: 1342197319249584151, guid: 196426bdc3ddb544db706e5f93962f84,
        type: 3}
      propertyPath: m_AnchorMin.y
      value: 0
      objectReference: {fileID: 0}
    - target: {fileID: 1342197319249584151, guid: 196426bdc3ddb544db706e5f93962f84,
        type: 3}
      propertyPath: m_AnchorMax.x
      value: 0
      objectReference: {fileID: 0}
    - target: {fileID: 1342197319249584151, guid: 196426bdc3ddb544db706e5f93962f84,
        type: 3}
      propertyPath: m_AnchorMax.y
      value: 0
      objectReference: {fileID: 0}
    - target: {fileID: 1342197319249584151, guid: 196426bdc3ddb544db706e5f93962f84,
        type: 3}
      propertyPath: m_Pivot.x
      value: 0
      objectReference: {fileID: 0}
    - target: {fileID: 1342197319249584151, guid: 196426bdc3ddb544db706e5f93962f84,
        type: 3}
      propertyPath: m_Pivot.y
      value: 0
      objectReference: {fileID: 0}
    - target: {fileID: 1342197319249584152, guid: 196426bdc3ddb544db706e5f93962f84,
        type: 3}
      propertyPath: m_Camera
      value: 
      objectReference: {fileID: 1511219973}
    - target: {fileID: 1342197319249584152, guid: 196426bdc3ddb544db706e5f93962f84,
        type: 3}
      propertyPath: m_PlaneDistance
      value: 20
      objectReference: {fileID: 0}
    - target: {fileID: 1342197319863161151, guid: 196426bdc3ddb544db706e5f93962f84,
        type: 3}
      propertyPath: m_LocalPosition.z
      value: 0
      objectReference: {fileID: 0}
    - target: {fileID: 1342197319863161151, guid: 196426bdc3ddb544db706e5f93962f84,
        type: 3}
      propertyPath: m_AnchoredPosition.x
      value: 325
      objectReference: {fileID: 0}
    - target: {fileID: 1342197319863161151, guid: 196426bdc3ddb544db706e5f93962f84,
        type: 3}
      propertyPath: m_AnchoredPosition.y
      value: 148.4
      objectReference: {fileID: 0}
    - target: {fileID: 1342197319706325709, guid: 196426bdc3ddb544db706e5f93962f84,
        type: 3}
      propertyPath: m_Layer
      value: 5
      objectReference: {fileID: 0}
    - target: {fileID: 1342197318420414818, guid: 196426bdc3ddb544db706e5f93962f84,
        type: 3}
      propertyPath: m_Layer
      value: 5
      objectReference: {fileID: 0}
    - target: {fileID: 1342197318817062333, guid: 196426bdc3ddb544db706e5f93962f84,
        type: 3}
      propertyPath: m_Layer
      value: 5
      objectReference: {fileID: 0}
    - target: {fileID: 1342197319379096510, guid: 196426bdc3ddb544db706e5f93962f84,
        type: 3}
      propertyPath: m_Layer
      value: 5
      objectReference: {fileID: 0}
    - target: {fileID: 1342197319863161152, guid: 196426bdc3ddb544db706e5f93962f84,
        type: 3}
      propertyPath: m_Layer
      value: 5
      objectReference: {fileID: 0}
    - target: {fileID: 1342197320059202492, guid: 196426bdc3ddb544db706e5f93962f84,
        type: 3}
      propertyPath: m_Layer
      value: 5
      objectReference: {fileID: 0}
    m_RemovedComponents: []
  m_SourcePrefab: {fileID: 100100000, guid: 196426bdc3ddb544db706e5f93962f84, type: 3}
--- !u!1001 &1741823057210206609
PrefabInstance:
  m_ObjectHideFlags: 0
  serializedVersion: 2
  m_Modification:
    m_TransformParent: {fileID: 0}
    m_Modifications:
    - target: {fileID: 1275668484791613608, guid: 356189a4e7eaa7844a0692877a29c109,
        type: 3}
      propertyPath: m_Name
      value: TumblerBiocodesPrefab45
      objectReference: {fileID: 0}
    - target: {fileID: 7908802870646609803, guid: 356189a4e7eaa7844a0692877a29c109,
        type: 3}
      propertyPath: m_LocalPosition.x
      value: -16
      objectReference: {fileID: 0}
    - target: {fileID: 7908802870646609803, guid: 356189a4e7eaa7844a0692877a29c109,
        type: 3}
      propertyPath: m_LocalPosition.y
      value: 3.53
      objectReference: {fileID: 0}
    - target: {fileID: 7908802870646609803, guid: 356189a4e7eaa7844a0692877a29c109,
        type: 3}
      propertyPath: m_LocalPosition.z
      value: 14
      objectReference: {fileID: 0}
    - target: {fileID: 7908802870646609803, guid: 356189a4e7eaa7844a0692877a29c109,
        type: 3}
      propertyPath: m_LocalRotation.x
      value: 0
      objectReference: {fileID: 0}
    - target: {fileID: 7908802870646609803, guid: 356189a4e7eaa7844a0692877a29c109,
        type: 3}
      propertyPath: m_LocalRotation.y
      value: -0.7933534
      objectReference: {fileID: 0}
    - target: {fileID: 7908802870646609803, guid: 356189a4e7eaa7844a0692877a29c109,
        type: 3}
      propertyPath: m_LocalRotation.z
      value: 0
      objectReference: {fileID: 0}
    - target: {fileID: 7908802870646609803, guid: 356189a4e7eaa7844a0692877a29c109,
        type: 3}
      propertyPath: m_LocalRotation.w
      value: 0.6087614
      objectReference: {fileID: 0}
    - target: {fileID: 7908802870646609803, guid: 356189a4e7eaa7844a0692877a29c109,
        type: 3}
      propertyPath: m_RootOrder
      value: 13
      objectReference: {fileID: 0}
    - target: {fileID: 7908802870646609803, guid: 356189a4e7eaa7844a0692877a29c109,
        type: 3}
      propertyPath: m_LocalEulerAnglesHint.x
      value: 0
      objectReference: {fileID: 0}
    - target: {fileID: 7908802870646609803, guid: 356189a4e7eaa7844a0692877a29c109,
        type: 3}
      propertyPath: m_LocalEulerAnglesHint.y
      value: -105
      objectReference: {fileID: 0}
    - target: {fileID: 7908802870646609803, guid: 356189a4e7eaa7844a0692877a29c109,
        type: 3}
      propertyPath: m_LocalEulerAnglesHint.z
      value: 0
      objectReference: {fileID: 0}
    m_RemovedComponents: []
  m_SourcePrefab: {fileID: 100100000, guid: 356189a4e7eaa7844a0692877a29c109, type: 3}
--- !u!1001 &2240444978176647240
PrefabInstance:
  m_ObjectHideFlags: 0
  serializedVersion: 2
  m_Modification:
    m_TransformParent: {fileID: 0}
    m_Modifications:
    - target: {fileID: 3019063119037492126, guid: 46e44b108901a4b40b585f78fd10159c,
        type: 3}
      propertyPath: m_Name
      value: TumblerBiocodesPrefab42
      objectReference: {fileID: 0}
    - target: {fileID: 8253646447708473750, guid: 46e44b108901a4b40b585f78fd10159c,
        type: 3}
      propertyPath: m_LocalPosition.x
      value: -18
      objectReference: {fileID: 0}
    - target: {fileID: 8253646447708473750, guid: 46e44b108901a4b40b585f78fd10159c,
        type: 3}
      propertyPath: m_LocalPosition.y
      value: 3.53
      objectReference: {fileID: 0}
    - target: {fileID: 8253646447708473750, guid: 46e44b108901a4b40b585f78fd10159c,
        type: 3}
      propertyPath: m_LocalPosition.z
      value: 0
      objectReference: {fileID: 0}
    - target: {fileID: 8253646447708473750, guid: 46e44b108901a4b40b585f78fd10159c,
        type: 3}
      propertyPath: m_LocalRotation.x
      value: 0
      objectReference: {fileID: 0}
    - target: {fileID: 8253646447708473750, guid: 46e44b108901a4b40b585f78fd10159c,
        type: 3}
      propertyPath: m_LocalRotation.y
      value: -0.9659258
      objectReference: {fileID: 0}
    - target: {fileID: 8253646447708473750, guid: 46e44b108901a4b40b585f78fd10159c,
        type: 3}
      propertyPath: m_LocalRotation.z
      value: 0
      objectReference: {fileID: 0}
    - target: {fileID: 8253646447708473750, guid: 46e44b108901a4b40b585f78fd10159c,
        type: 3}
      propertyPath: m_LocalRotation.w
      value: 0.2588191
      objectReference: {fileID: 0}
    - target: {fileID: 8253646447708473750, guid: 46e44b108901a4b40b585f78fd10159c,
        type: 3}
      propertyPath: m_RootOrder
      value: 10
      objectReference: {fileID: 0}
    - target: {fileID: 8253646447708473750, guid: 46e44b108901a4b40b585f78fd10159c,
        type: 3}
      propertyPath: m_LocalEulerAnglesHint.x
      value: 0
      objectReference: {fileID: 0}
    - target: {fileID: 8253646447708473750, guid: 46e44b108901a4b40b585f78fd10159c,
        type: 3}
      propertyPath: m_LocalEulerAnglesHint.y
      value: -150
      objectReference: {fileID: 0}
    - target: {fileID: 8253646447708473750, guid: 46e44b108901a4b40b585f78fd10159c,
        type: 3}
      propertyPath: m_LocalEulerAnglesHint.z
      value: 0
      objectReference: {fileID: 0}
    m_RemovedComponents: []
  m_SourcePrefab: {fileID: 100100000, guid: 46e44b108901a4b40b585f78fd10159c, type: 3}
--- !u!1001 &4522167636383326949
PrefabInstance:
  m_ObjectHideFlags: 0
  serializedVersion: 2
  m_Modification:
    m_TransformParent: {fileID: 0}
    m_Modifications:
    - target: {fileID: 6638310741228088209, guid: 2a509f166ddb00e408b266a8bbd3624a,
        type: 3}
      propertyPath: m_Name
      value: TumblerBiocodesPrefab43
      objectReference: {fileID: 0}
    - target: {fileID: 1009720016882316781, guid: 2a509f166ddb00e408b266a8bbd3624a,
        type: 3}
      propertyPath: m_LocalPosition.x
      value: 18
      objectReference: {fileID: 0}
    - target: {fileID: 1009720016882316781, guid: 2a509f166ddb00e408b266a8bbd3624a,
        type: 3}
      propertyPath: m_LocalPosition.y
      value: 3.53
      objectReference: {fileID: 0}
    - target: {fileID: 1009720016882316781, guid: 2a509f166ddb00e408b266a8bbd3624a,
        type: 3}
      propertyPath: m_LocalPosition.z
      value: 0
      objectReference: {fileID: 0}
    - target: {fileID: 1009720016882316781, guid: 2a509f166ddb00e408b266a8bbd3624a,
        type: 3}
      propertyPath: m_LocalRotation.x
      value: 0
      objectReference: {fileID: 0}
    - target: {fileID: 1009720016882316781, guid: 2a509f166ddb00e408b266a8bbd3624a,
        type: 3}
      propertyPath: m_LocalRotation.y
      value: 0.2588191
      objectReference: {fileID: 0}
    - target: {fileID: 1009720016882316781, guid: 2a509f166ddb00e408b266a8bbd3624a,
        type: 3}
      propertyPath: m_LocalRotation.z
      value: 0
      objectReference: {fileID: 0}
    - target: {fileID: 1009720016882316781, guid: 2a509f166ddb00e408b266a8bbd3624a,
        type: 3}
      propertyPath: m_LocalRotation.w
      value: 0.9659258
      objectReference: {fileID: 0}
    - target: {fileID: 1009720016882316781, guid: 2a509f166ddb00e408b266a8bbd3624a,
        type: 3}
      propertyPath: m_RootOrder
      value: 11
      objectReference: {fileID: 0}
    - target: {fileID: 1009720016882316781, guid: 2a509f166ddb00e408b266a8bbd3624a,
        type: 3}
      propertyPath: m_LocalEulerAnglesHint.x
      value: 0
      objectReference: {fileID: 0}
    - target: {fileID: 1009720016882316781, guid: 2a509f166ddb00e408b266a8bbd3624a,
        type: 3}
      propertyPath: m_LocalEulerAnglesHint.y
      value: 30
      objectReference: {fileID: 0}
    - target: {fileID: 1009720016882316781, guid: 2a509f166ddb00e408b266a8bbd3624a,
        type: 3}
      propertyPath: m_LocalEulerAnglesHint.z
      value: 0
      objectReference: {fileID: 0}
    m_RemovedComponents: []
  m_SourcePrefab: {fileID: 100100000, guid: 2a509f166ddb00e408b266a8bbd3624a, type: 3}
--- !u!1001 &5415098329501269934
PrefabInstance:
  m_ObjectHideFlags: 0
  serializedVersion: 2
  m_Modification:
    m_TransformParent: {fileID: 0}
    m_Modifications:
    - target: {fileID: 2736134495362607220, guid: ae5bcf3f16fcfd343a4ba991a1658728,
        type: 3}
      propertyPath: m_Name
      value: TumblerBiocodesPrefab40
      objectReference: {fileID: 0}
    - target: {fileID: 3303031851586623814, guid: ae5bcf3f16fcfd343a4ba991a1658728,
        type: 3}
      propertyPath: m_LocalPosition.x
      value: -0
      objectReference: {fileID: 0}
    - target: {fileID: 3303031851586623814, guid: ae5bcf3f16fcfd343a4ba991a1658728,
        type: 3}
      propertyPath: m_LocalPosition.y
      value: 3.53
      objectReference: {fileID: 0}
    - target: {fileID: 3303031851586623814, guid: ae5bcf3f16fcfd343a4ba991a1658728,
        type: 3}
      propertyPath: m_LocalPosition.z
      value: -18
      objectReference: {fileID: 0}
    - target: {fileID: 3303031851586623814, guid: ae5bcf3f16fcfd343a4ba991a1658728,
        type: 3}
      propertyPath: m_LocalRotation.x
      value: 0
      objectReference: {fileID: 0}
    - target: {fileID: 3303031851586623814, guid: ae5bcf3f16fcfd343a4ba991a1658728,
        type: 3}
      propertyPath: m_LocalRotation.y
      value: -0.86602545
      objectReference: {fileID: 0}
    - target: {fileID: 3303031851586623814, guid: ae5bcf3f16fcfd343a4ba991a1658728,
        type: 3}
      propertyPath: m_LocalRotation.z
      value: 0
      objectReference: {fileID: 0}
    - target: {fileID: 3303031851586623814, guid: ae5bcf3f16fcfd343a4ba991a1658728,
        type: 3}
      propertyPath: m_LocalRotation.w
      value: 0.49999994
      objectReference: {fileID: 0}
    - target: {fileID: 3303031851586623814, guid: ae5bcf3f16fcfd343a4ba991a1658728,
        type: 3}
      propertyPath: m_RootOrder
      value: 8
      objectReference: {fileID: 0}
    - target: {fileID: 3303031851586623814, guid: ae5bcf3f16fcfd343a4ba991a1658728,
        type: 3}
      propertyPath: m_LocalEulerAnglesHint.x
      value: 0
      objectReference: {fileID: 0}
    - target: {fileID: 3303031851586623814, guid: ae5bcf3f16fcfd343a4ba991a1658728,
        type: 3}
      propertyPath: m_LocalEulerAnglesHint.y
      value: -120
      objectReference: {fileID: 0}
    - target: {fileID: 3303031851586623814, guid: ae5bcf3f16fcfd343a4ba991a1658728,
        type: 3}
      propertyPath: m_LocalEulerAnglesHint.z
      value: 0
      objectReference: {fileID: 0}
    m_RemovedComponents: []
  m_SourcePrefab: {fileID: 100100000, guid: ae5bcf3f16fcfd343a4ba991a1658728, type: 3}
--- !u!1001 &9170065787487562153
PrefabInstance:
  m_ObjectHideFlags: 0
  serializedVersion: 2
  m_Modification:
    m_TransformParent: {fileID: 0}
    m_Modifications:
    - target: {fileID: 2929755767740823481, guid: 962db62fdbe59a14e917d0c3de42edad,
        type: 3}
      propertyPath: m_Name
      value: TumblerBiocodesPrefab44
      objectReference: {fileID: 0}
    - target: {fileID: 4612891692534344687, guid: 962db62fdbe59a14e917d0c3de42edad,
        type: 3}
      propertyPath: m_LocalPosition.x
      value: 16
      objectReference: {fileID: 0}
    - target: {fileID: 4612891692534344687, guid: 962db62fdbe59a14e917d0c3de42edad,
        type: 3}
      propertyPath: m_LocalPosition.y
      value: 3.53
      objectReference: {fileID: 0}
    - target: {fileID: 4612891692534344687, guid: 962db62fdbe59a14e917d0c3de42edad,
        type: 3}
      propertyPath: m_LocalPosition.z
      value: -14
      objectReference: {fileID: 0}
    - target: {fileID: 4612891692534344687, guid: 962db62fdbe59a14e917d0c3de42edad,
        type: 3}
      propertyPath: m_LocalRotation.x
      value: 0
      objectReference: {fileID: 0}
    - target: {fileID: 4612891692534344687, guid: 962db62fdbe59a14e917d0c3de42edad,
        type: 3}
      propertyPath: m_LocalRotation.y
      value: 0.60876137
      objectReference: {fileID: 0}
    - target: {fileID: 4612891692534344687, guid: 962db62fdbe59a14e917d0c3de42edad,
        type: 3}
      propertyPath: m_LocalRotation.z
      value: 0
      objectReference: {fileID: 0}
    - target: {fileID: 4612891692534344687, guid: 962db62fdbe59a14e917d0c3de42edad,
        type: 3}
      propertyPath: m_LocalRotation.w
      value: 0.7933534
      objectReference: {fileID: 0}
    - target: {fileID: 4612891692534344687, guid: 962db62fdbe59a14e917d0c3de42edad,
        type: 3}
      propertyPath: m_RootOrder
      value: 12
      objectReference: {fileID: 0}
    - target: {fileID: 4612891692534344687, guid: 962db62fdbe59a14e917d0c3de42edad,
        type: 3}
      propertyPath: m_LocalEulerAnglesHint.x
      value: 0
      objectReference: {fileID: 0}
    - target: {fileID: 4612891692534344687, guid: 962db62fdbe59a14e917d0c3de42edad,
        type: 3}
      propertyPath: m_LocalEulerAnglesHint.y
      value: 75
      objectReference: {fileID: 0}
    - target: {fileID: 4612891692534344687, guid: 962db62fdbe59a14e917d0c3de42edad,
        type: 3}
      propertyPath: m_LocalEulerAnglesHint.z
      value: 0
      objectReference: {fileID: 0}
    m_RemovedComponents: []
  m_SourcePrefab: {fileID: 100100000, guid: 962db62fdbe59a14e917d0c3de42edad, type: 3}
